   {
   "geocoded_waypoints" : [
      {
         "geocoder_status" : "OK",
         "place_id" : "ChIJR1VVVQJEHToRk2cNDN0gL28",
         "types" : [ "establishment", "point_of_interest", "university" ]
      },
      {
         "geocoder_status" : "OK",
         "place_id" : "ChIJ8U-Eg0ZEHToRN8gd9vWmdwU",
         "types" : [
            "establishment",
            "point_of_interest",
            "train_station",
            "transit_station"
         ]
      }
   ],
   "routes" : [
      {
         "bounds" : {
            "northeast" : {
               "lat" : 22.3419824,
               "lng" : 87.32524060000001
            },
            "southwest" : {
               "lat" : 22.3078818,
               "lng" : 87.29365319999999
            }
         },
         "copyrights" : "Map data ©2018 Google",
         "legs" : [
            {
               "distance" : {
                  "text" : "7.9 km",
                  "value" : 7875
               },
               "duration" : {
                  "text" : "19 mins",
                  "value" : 1142
               },
               "end_address" : "Kharagpur, West Bengal 721301, India",
               "end_location" : {
                  "lat" : 22.3419824,
                  "lng" : 87.32524060000001
               },
               "start_address" : "Kharagpur, West Bengal 721302, India",
               "start_location" : {
                  "lat" : 22.3087969,
                  "lng" : 87.3046792
               },
               "steps" : [
                  {
                     "distance" : {
                        "text" : "3.4 km",
                        "value" : 3448
                     },
                     "duration" : {
                        "text" : "7 mins",
                        "value" : 445
                     },
                     "end_location" : {
                        "lat" : 22.3230145,
                        "lng" : 87.3055566
                     },
                     "html_instructions" : "Head \u003cb\u003enorth\u003c/b\u003e on \u003cb\u003eBoundary Rd\u003c/b\u003e\u003cdiv style=\"font-size:0.9em\"\u003ePass by G: 60-51 (on the left in 1.6&nbsp;km)\u003c/div\u003e",
                     "polyline" : {
                        "points" : "_edgCguzsOWHKFMFKHGFQPMNIRKRYl@CHCJAJAJAN@R@j@PjCHt@DRBFBHDFNNn@p@lA~@vAjARRLPHLFLDNBN@N@R?VAv@?b@Cn@AHEb@Eb@[vBa@bCUlAIf@ERGRMVc@f@]`@i@d@_@Xc@XkAt@[PQJKLGHGNGHGNIV_@nA[p@[f@_@^YV]TYNSHSHUFSDm@D}@FgFDk@Ck@AeAIYCgAK}@MaBUeAOq@I_Cg@SGQI_@SeDwBcAq@cEeCgBkAiCeBcCaBy@m@k@m@CCGOGMMYCOCMAWMiCIaAEu@SyBAEYuCQmBa@qDS{AQ_BMeASiCGo@Gy@Ac@C}@"
                     },
                     "start_location" : {
                        "lat" : 22.3087969,
                        "lng" : 87.3046792
                     },
                     "travel_mode" : "DRIVING"
                  },
                  {
                     "distance" : {
                        "text" : "0.8 km",
                        "value" : 770
                     },
                     "duration" : {
                        "text" : "1 min",
                        "value" : 80
                     },
                     "end_location" : {
                        "lat" : 22.3252598,
                        "lng" : 87.3116869
                     },
                     "html_instructions" : "Continue onto \u003cb\u003eIIT KGP Rail Over Bridge\u003c/b\u003e\u003cdiv style=\"font-size:0.9em\"\u003ePass by Abhijit Chandra (on the left in 350&nbsp;m)\u003c/div\u003e",
                     "polyline" : {
                        "points" : "y}fgCwzzsOAQAiAAc@?m@Am@Ci@Co@?A@u@JmCVwG?WAOASEUGOKSKSMQUQUKsCkAc@U]S[UYSgB{A"
                     },
                     "start_location" : {
                        "lat" : 22.3230145,
                        "lng" : 87.3055566
                     },
                     "travel_mode" : "DRIVING"
                  },
                  {
                     "distance" : {
                        "text" : "0.6 km",
                        "value" : 618
                     },
                     "duration" : {
                        "text" : "2 mins",
                        "value" : 93
                     },
                     "end_location" : {
                        "lat" : 22.3269544,
                        "lng" : 87.31728769999999
                     },
                     "html_instructions" : "Continue straight onto \u003cb\u003eIIT KGP Rail Over Bridge\u003c/b\u003e/\u003cb\u003eKeshiary Rd\u003c/b\u003e\u003cdiv style=\"font-size:0.9em\"\u003eContinue to follow Keshiary Rd\u003c/div\u003e\u003cdiv style=\"font-size:0.9em\"\u003ePass by Dr Manish Kumar , ENT (on the right in 450&nbsp;m)\u003c/div\u003e",
                     "maneuver" : "straight",
                     "polyline" : {
                        "points" : "{kggCaa|sO{@w@[i@a@mAYaDKoAOcBBSe@kBOo@q@eCY_Ba@sDAO"
                     },
                     "start_location" : {
                        "lat" : 22.3252598,
                        "lng" : 87.3116869
                     },
                     "travel_mode" : "DRIVING"
                  },
                  {
                     "distance" : {
                        "text" : "0.4 km",
                        "value" : 442
                     },
                     "duration" : {
                        "text" : "1 min",
                        "value" : 70
                     },
                     "end_location" : {
                        "lat" : 22.3308522,
                        "lng" : 87.3164525
                     },
                     "html_instructions" : "Turn \u003cb\u003eleft\u003c/b\u003e",
                     "maneuver" : "turn-left",
                     "polyline" : {
                        "points" : "mvggCad}sOc@BcBRe@HwD`@k@Jg@F{Cb@uDj@"
                     },
                     "start_location" : {
                        "lat" : 22.3269544,
                        "lng" : 87.31728769999999
                     },
                     "travel_mode" : "DRIVING"
                  },
                  {
                     "distance" : {
                        "text" : "0.5 km",
                        "value" : 541
                     },
                     "duration" : {
                        "text" : "1 min",
                        "value" : 71
                     },
                     "end_location" : {
                        "lat" : 22.3318861,
                        "lng" : 87.3215893
                     },
                     "html_instructions" : "Turn \u003cb\u003eright\u003c/b\u003e",
                     "maneuver" : "turn-right",
                     "polyline" : {
                        "points" : "ynhgCy~|sOQwAoAeLmBeO"
                     },
                     "start_location" : {
                        "lat" : 22.3308522,
                        "lng" : 87.3164525
                     },
                     "travel_mode" : "DRIVING"
                  },
                  {
                     "distance" : {
                        "text" : "0.6 km",
                        "value" : 608
                     },
                     "duration" : {
                        "text" : "2 mins",
                        "value" : 101
                     },
                     "end_location" : {
                        "lat" : 22.3372383,
                        "lng" : 87.3203901
                     },
                     "html_instructions" : "Turn \u003cb\u003eleft\u003c/b\u003e",
                     "maneuver" : "turn-left",
                     "polyline" : {
                        "points" : "iuhgC}~}sOmG|@sC`@qEl@qBVoBXsBZcBR"
                     },
                     "start_location" : {
                        "lat" : 22.3318861,
                        "lng" : 87.3215893
                     },
                     "travel_mode" : "DRIVING"
                  },
                  {
                     "distance" : {
                        "text" : "89 m",
                        "value" : 89
                     },
                     "duration" : {
                        "text" : "1 min",
                        "value" : 15
                     },
                     "end_location" : {
                        "lat" : 22.3379053,
                        "lng" : 87.32020059999999
                     },
                     "html_instructions" : "At the roundabout, continue straight",
                     "maneuver" : "roundabout-left",
                     "polyline" : {
                        "points" : "wvigCmw}sO?@@??@?@?@?@A??@?@A@A@A??@A?A??@A?A?A?A?A?AAA??AA?AA?AA??A?AAA?AeB^"
                     },
                     "start_location" : {
                        "lat" : 22.3372383,
                        "lng" : 87.3203901
                     },
                     "travel_mode" : "DRIVING"
                  },
                  {
                     "distance" : {
                        "text" : "0.3 km",
                        "value" : 293
                     },
                     "duration" : {
                        "text" : "1 min",
                        "value" : 45
                     },
                     "end_location" : {
                        "lat" : 22.3404917,
                        "lng" : 87.31965199999999
                     },
                     "html_instructions" : "Continue onto \u003cb\u003eRailway overbridge\u003c/b\u003e",
                     "polyline" : {
                        "points" : "}zigCgv}sOeN`BMBOF"
                     },
                     "start_location" : {
                        "lat" : 22.3379053,
                        "lng" : 87.32020059999999
                     },
                     "travel_mode" : "DRIVING"
                  },
                  {
                     "distance" : {
                        "text" : "0.2 km",
                        "value" : 239
                     },
                     "duration" : {
                        "text" : "1 min",
                        "value" : 43
                     },
                     "end_location" : {
                        "lat" : 22.3404783,
                        "lng" : 87.31739189999999
                     },
                     "html_instructions" : "\u003cb\u003eRailway overbridge\u003c/b\u003e turns slightly \u003cb\u003eleft\u003c/b\u003e and becomes \u003cb\u003eKharagpur Railway Station Rd\u003c/b\u003e\u003cdiv style=\"font-size:0.9em\"\u003ePass by Kharagpur Railway Stn (on the right)\u003c/div\u003e",
                     "polyline" : {
                        "points" : "akjgCyr}sOKHCDEHCLAH@PPvDFrB@^?V?Z"
                     },
                     "start_location" : {
                        "lat" : 22.3404917,
                        "lng" : 87.31965199999999
                     },
                     "travel_mode" : "DRIVING"
                  },
                  {
                     "distance" : {
                        "text" : "0.8 km",
                        "value" : 827
                     },
                     "duration" : {
                        "text" : "3 mins",
                        "value" : 179
                     },
                     "end_location" : {
                        "lat" : 22.3419824,
                        "lng" : 87.32524060000001
                     },
                     "html_instructions" : "Sharp \u003cb\u003eright\u003c/b\u003e at Soup and Snacks Roadside",
                     "maneuver" : "turn-sharp-right",
                     "polyline" : {
                        "points" : "_kjgCud}sOIm@Gm@Ea@Iw@_AwIu@iGQgBAIAI@GDO?A?EEw@ASYkCg@}CMgAC[EQa@wBAI"
                     },
                     "start_location" : {
                        "lat" : 22.3404783,
                        "lng" : 87.31739189999999
                     },
                     "travel_mode" : "DRIVING"
                  }
               ],
               "traffic_speed_entry" : [],
               "via_waypoint" : []
            }
         ],
         "overview_polyline" : {
            "points" : "_edgCguzsOc@PYPYXWb@e@`AGTCV?b@RvDNhAFPTVn@p@lA~@jB~AV^L\\D^@j@GtCKfA}@zF_@tBMf@MVc@f@gAfAcAr@gBfA]XOXy@`Cw@xAy@v@w@d@g@Ri@LkBLgFDk@CqBKaGs@wBYsCo@q@]iFiDkHqEmGgEy@m@k@m@KSUg@G]_@yGaAcKuAsLe@wGI}DA{AGyA@w@b@eLAg@Gi@Sc@Ye@k@]wDaBy@i@aCoB{@w@[i@a@mAYaD[sDBSe@kBaAuDY_Ba@sDAOc@BiC\\cFl@cEj@uDj@QwAoAeLmBeOaL~AcIdAgIhA@B?BEHIBIAEIAA?AeB^eN`B]JONIV?ZXjH@v@?ZIm@MoAiAoKgAqJCSFWGsAYkCg@}CQcBi@sC"
         },
         "summary" : "Boundary Rd",
         "warnings" : [],
         "waypoint_order" : []
      },
      {
         "bounds" : {
            "northeast" : {
               "lat" : 22.3419824,
               "lng" : 87.32524060000001
            },
            "southwest" : {
               "lat" : 22.3078818,
               "lng" : 87.29365319999999
            }
         },
         "copyrights" : "Map data ©2018 Google",
         "legs" : [
            {
               "distance" : {
                  "text" : "8.0 km",
                  "value" : 7992
               },
               "duration" : {
                  "text" : "19 mins",
                  "value" : 1158
               },
               "end_address" : "Kharagpur, West Bengal 721301, India",
               "end_location" : {
                  "lat" : 22.3419824,
                  "lng" : 87.32524060000001
               },
               "start_address" : "Kharagpur, West Bengal 721302, India",
               "start_location" : {
                  "lat" : 22.3087969,
                  "lng" : 87.3046792
               },
               "steps" : [
                  {
                     "distance" : {
                        "text" : "3.4 km",
                        "value" : 3448
                     },
                     "duration" : {
                        "text" : "7 mins",
                        "value" : 445
                     },
                     "end_location" : {
                        "lat" : 22.3230145,
                        "lng" : 87.3055566
                     },
                     "html_instructions" : "Head \u003cb\u003enorth\u003c/b\u003e on \u003cb\u003eBoundary Rd\u003c/b\u003e\u003cdiv style=\"font-size:0.9em\"\u003ePass by G: 60-51 (on the left in 1.6&nbsp;km)\u003c/div\u003e",
                     "polyline" : {
                        "points" : "_edgCguzsOWHKFMFKHGFQPMNIRKRYl@CHCJAJAJAN@R@j@PjCHt@DRBFBHDFNNn@p@lA~@vAjARRLPHLFLDNBN@N@R?VAv@?b@Cn@AHEb@Eb@[vBa@bCUlAIf@ERGRMVc@f@]`@i@d@_@Xc@XkAt@[PQJKLGHGNGHGNIV_@nA[p@[f@_@^YV]TYNSHSHUFSDm@D}@FgFDk@Ck@AeAIYCgAK}@MaBUeAOq@I_Cg@SGQI_@SeDwBcAq@cEeCgBkAiCeBcCaBy@m@k@m@CCGOGMMYCOCMAWMiCIaAEu@SyBAEYuCQmBa@qDS{AQ_BMeASiCGo@Gy@Ac@C}@"
                     },
                     "start_location" : {
                        "lat" : 22.3087969,
                        "lng" : 87.3046792
                     },
                     "travel_mode" : "DRIVING"
                  },
                  {
                     "distance" : {
                        "text" : "0.8 km",
                        "value" : 770
                     },
                     "duration" : {
                        "text" : "1 min",
                        "value" : 80
                     },
                     "end_location" : {
                        "lat" : 22.3252598,
                        "lng" : 87.3116869
                     },
                     "html_instructions" : "Continue onto \u003cb\u003eIIT KGP Rail Over Bridge\u003c/b\u003e\u003cdiv style=\"font-size:0.9em\"\u003ePass by Abhijit Chandra (on the left in 350&nbsp;m)\u003c/div\u003e",
                     "polyline" : {
                        "points" : "y}fgCwzzsOAQAiAAc@?m@Am@Ci@Co@?A@u@JmCVwG?WAOASEUGOKSKSMQUQUKsCkAc@U]S[UYSgB{A"
                     },
                     "start_location" : {
                        "lat" : 22.3230145,
                        "lng" : 87.3055566
                     },
                     "travel_mode" : "DRIVING"
                  },
                  {
                     "distance" : {
                        "text" : "1.4 km",
                        "value" : 1383
                     },
                     "duration" : {
                        "text" : "4 mins",
                        "value" : 220
                     },
                     "end_location" : {
                        "lat" : 22.3353313,
                        "lng" : 87.31124520000002
                     },
                     "html_instructions" : "Turn \u003cb\u003eleft\u003c/b\u003e onto \u003cb\u003eSH 5\u003c/b\u003e",
                     "maneuver" : "turn-left",
                     "polyline" : {
                        "points" : "{kggCaa|sO}CdDiCtCKJEJMTo@t@IJU^GPQl@_@x@]v@A@CDKBK?O?OAWEu@OwDw@mAYwAQwDUkBOsBQmAQcDo@cA]{Ai@m@UUK[K[E[C]EA?Iw@EUKgAE_@"
                     },
                     "start_location" : {
                        "lat" : 22.3252598,
                        "lng" : 87.3116869
                     },
                     "travel_mode" : "DRIVING"
                  },
                  {
                     "distance" : {
                        "text" : "1.0 km",
                        "value" : 957
                     },
                     "duration" : {
                        "text" : "2 mins",
                        "value" : 134
                     },
                     "end_location" : {
                        "lat" : 22.3372929,
                        "lng" : 87.3202843
                     },
                     "html_instructions" : "Continue straight past Maa Kali Temple onto \u003cb\u003eStation Rd\u003c/b\u003e",
                     "maneuver" : "straight",
                     "polyline" : {
                        "points" : "yjigCi~{sOo@}F_@oDSkBs@}FkAuEKc@Ka@Io@]mDcB{N"
                     },
                     "start_location" : {
                        "lat" : 22.3353313,
                        "lng" : 87.31124520000002
                     },
                     "travel_mode" : "DRIVING"
                  },
                  {
                     "distance" : {
                        "text" : "75 m",
                        "value" : 75
                     },
                     "duration" : {
                        "text" : "1 min",
                        "value" : 12
                     },
                     "end_location" : {
                        "lat" : 22.3379053,
                        "lng" : 87.32020059999999
                     },
                     "html_instructions" : "At the roundabout, take the \u003cb\u003e1st\u003c/b\u003e exit",
                     "maneuver" : "roundabout-left",
                     "polyline" : {
                        "points" : "awigCwv}sOA?A?A?A?A?AAA??AA?AA?AA??A?AAA?AeB^"
                     },
                     "start_location" : {
                        "lat" : 22.3372929,
                        "lng" : 87.3202843
                     },
                     "travel_mode" : "DRIVING"
                  },
                  {
                     "distance" : {
                        "text" : "0.3 km",
                        "value" : 293
                     },
                     "duration" : {
                        "text" : "1 min",
                        "value" : 45
                     },
                     "end_location" : {
                        "lat" : 22.3404917,
                        "lng" : 87.31965199999999
                     },
                     "html_instructions" : "Continue onto \u003cb\u003eRailway overbridge\u003c/b\u003e",
                     "polyline" : {
                        "points" : "}zigCgv}sOeN`BMBOF"
                     },
                     "start_location" : {
                        "lat" : 22.3379053,
                        "lng" : 87.32020059999999
                     },
                     "travel_mode" : "DRIVING"
                  },
                  {
                     "distance" : {
                        "text" : "0.2 km",
                        "value" : 239
                     },
                     "duration" : {
                        "text" : "1 min",
                        "value" : 43
                     },
                     "end_location" : {
                        "lat" : 22.3404783,
                        "lng" : 87.31739189999999
                     },
                     "html_instructions" : "\u003cb\u003eRailway overbridge\u003c/b\u003e turns slightly \u003cb\u003eleft\u003c/b\u003e and becomes \u003cb\u003eKharagpur Railway Station Rd\u003c/b\u003e\u003cdiv style=\"font-size:0.9em\"\u003ePass by Kharagpur Railway Stn (on the right)\u003c/div\u003e",
                     "polyline" : {
                        "points" : "akjgCyr}sOKHCDEHCLAH@PPvDFrB@^?V?Z"
                     },
                     "start_location" : {
                        "lat" : 22.3404917,
                        "lng" : 87.31965199999999
                     },
                     "travel_mode" : "DRIVING"
                  },
                  {
                     "distance" : {
                        "text" : "0.8 km",
                        "value" : 827
                     },
                     "duration" : {
                        "text" : "3 mins",
                        "value" : 179
                     },
                     "end_location" : {
                        "lat" : 22.3419824,
                        "lng" : 87.32524060000001
                     },
                     "html_instructions" : "Sharp \u003cb\u003eright\u003c/b\u003e at Soup and Snacks Roadside",
                     "maneuver" : "turn-sharp-right",
                     "polyline" : {
                        "points" : "_kjgCud}sOIm@Gm@Ea@Iw@_AwIu@iGQgBAIAI@GDO?A?EEw@ASYkCg@}CMgAC[EQa@wBAI"
                     },
                     "start_location" : {
                        "lat" : 22.3404783,
                        "lng" : 87.31739189999999
                     },
                     "travel_mode" : "DRIVING"
                  }
               ],
               "traffic_speed_entry" : [],
               "via_waypoint" : []
            }
         ],
         "overview_polyline" : {
            "points" : "_edgCguzsOc@PYPYXWb@e@`AGTCV?b@RvDNhAFPTVn@p@lA~@jB~AV^L\\D^@j@GtCKfA}@zF_@tBMf@MVc@f@gAfAcAr@gBfA]XOXy@`Cw@xAy@v@w@d@g@Ri@LkBLgFDk@CqBKaGs@wBYsCo@q@]iFiDkHqEmGgEy@m@k@m@KSUg@G]_@yGaAcKuAsLe@wGI}DA{AGyA@w@b@eLAg@Gi@Sc@Ye@k@]wDaBy@i@aCoBgHzHQVMTo@t@_@j@Y~@}@pBEFWB_@AmAUeGqAwAQwDU_Fa@mAQcDo@_DgAcAa@w@Qy@IKw@Q}AiByPs@}FkAuEWeAg@}EeB{NA?A?EACAEIeB\\sNdB[PINEVRhEHrC?r@Q{AOyAuBaRSqB?QDQE}@[_D_AsGc@aC"
         },
         "summary" : "Boundary Rd and SH 5",
         "warnings" : [],
         "waypoint_order" : []
      },
      {
         "bounds" : {
            "northeast" : {
               "lat" : 22.3452294,
               "lng" : 87.33697680000002
            },
            "southwest" : {
               "lat" : 22.3078818,
               "lng" : 87.29365319999999
            }
         },
         "copyrights" : "Map data ©2018 Google",
         "legs" : [
            {
               "distance" : {
                  "text" : "10.0 km",
                  "value" : 9986
               },
               "duration" : {
                  "text" : "24 mins",
                  "value" : 1437
               },
               "end_address" : "Kharagpur, West Bengal 721301, India",
               "end_location" : {
                  "lat" : 22.3419824,
                  "lng" : 87.32524060000001
               },
               "start_address" : "Kharagpur, West Bengal 721302, India",
               "start_location" : {
                  "lat" : 22.3087969,
                  "lng" : 87.3046792
               },
               "steps" : [
                  {
                     "distance" : {
                        "text" : "3.4 km",
                        "value" : 3448
                     },
                     "duration" : {
                        "text" : "7 mins",
                        "value" : 445
                     },
                     "end_location" : {
                        "lat" : 22.3230145,
                        "lng" : 87.3055566
                     },
                     "html_instructions" : "Head \u003cb\u003enorth\u003c/b\u003e on \u003cb\u003eBoundary Rd\u003c/b\u003e\u003cdiv style=\"font-size:0.9em\"\u003ePass by G: 60-51 (on the left in 1.6&nbsp;km)\u003c/div\u003e",
                     "polyline" : {
                        "points" : "_edgCguzsOWHKFMFKHGFQPMNIRKRYl@CHCJAJAJAN@R@j@PjCHt@DRBFBHDFNNn@p@lA~@vAjARRLPHLFLDNBN@N@R?VAv@?b@Cn@AHEb@Eb@[vBa@bCUlAIf@ERGRMVc@f@]`@i@d@_@Xc@XkAt@[PQJKLGHGNGHGNIV_@nA[p@[f@_@^YV]TYNSHSHUFSDm@D}@FgFDk@Ck@AeAIYCgAK}@MaBUeAOq@I_Cg@SGQI_@SeDwBcAq@cEeCgBkAiCeBcCaBy@m@k@m@CCGOGMMYCOCMAWMiCIaAEu@SyBAEYuCQmBa@qDS{AQ_BMeASiCGo@Gy@Ac@C}@"
                     },
                     "start_location" : {
                        "lat" : 22.3087969,
                        "lng" : 87.3046792
                     },
                     "travel_mode" : "DRIVING"
                  },
                  {
                     "distance" : {
                        "text" : "0.8 km",
                        "value" : 770
                     },
                     "duration" : {
                        "text" : "1 min",
                        "value" : 80
                     },
                     "end_location" : {
                        "lat" : 22.3252598,
                        "lng" : 87.3116869
                     },
                     "html_instructions" : "Continue onto \u003cb\u003eIIT KGP Rail Over Bridge\u003c/b\u003e\u003cdiv style=\"font-size:0.9em\"\u003ePass by Abhijit Chandra (on the left in 350&nbsp;m)\u003c/div\u003e",
                     "polyline" : {
                        "points" : "y}fgCwzzsOAQAiAAc@?m@Am@Ci@Co@?A@u@JmCVwG?WAOASEUGOKSKSMQUQUKsCkAc@U]S[UYSgB{A"
                     },
                     "start_location" : {
                        "lat" : 22.3230145,
                        "lng" : 87.3055566
                     },
                     "travel_mode" : "DRIVING"
                  },
                  {
                     "distance" : {
                        "text" : "0.6 km",
                        "value" : 618
                     },
                     "duration" : {
                        "text" : "2 mins",
                        "value" : 93
                     },
                     "end_location" : {
                        "lat" : 22.3269544,
                        "lng" : 87.31728769999999
                     },
                     "html_instructions" : "Continue straight onto \u003cb\u003eIIT KGP Rail Over Bridge\u003c/b\u003e/\u003cb\u003eKeshiary Rd\u003c/b\u003e\u003cdiv style=\"font-size:0.9em\"\u003eContinue to follow Keshiary Rd\u003c/div\u003e\u003cdiv style=\"font-size:0.9em\"\u003ePass by Dr Manish Kumar , ENT (on the right in 450&nbsp;m)\u003c/div\u003e",
                     "maneuver" : "straight",
                     "polyline" : {
                        "points" : "{kggCaa|sO{@w@[i@a@mAYaDKoAOcBBSe@kBOo@q@eCY_Ba@sDAO"
                     },
                     "start_location" : {
                        "lat" : 22.3252598,
                        "lng" : 87.3116869
                     },
                     "travel_mode" : "DRIVING"
                  },
                  {
                     "distance" : {
                        "text" : "0.4 km",
                        "value" : 442
                     },
                     "duration" : {
                        "text" : "1 min",
                        "value" : 70
                     },
                     "end_location" : {
                        "lat" : 22.3308522,
                        "lng" : 87.3164525
                     },
                     "html_instructions" : "Turn \u003cb\u003eleft\u003c/b\u003e",
                     "maneuver" : "turn-left",
                     "polyline" : {
                        "points" : "mvggCad}sOc@BcBRe@HwD`@k@Jg@F{Cb@uDj@"
                     },
                     "start_location" : {
                        "lat" : 22.3269544,
                        "lng" : 87.31728769999999
                     },
                     "travel_mode" : "DRIVING"
                  },
                  {
                     "distance" : {
                        "text" : "1.4 km",
                        "value" : 1353
                     },
                     "duration" : {
                        "text" : "3 mins",
                        "value" : 184
                     },
                     "end_location" : {
                        "lat" : 22.3333968,
                        "lng" : 87.32931500000001
                     },
                     "html_instructions" : "Turn \u003cb\u003eright\u003c/b\u003e",
                     "maneuver" : "turn-right",
                     "polyline" : {
                        "points" : "ynhgCy~|sOQwAoAeLmBeOCWuAeMGi@gB}NcBcO"
                     },
                     "start_location" : {
                        "lat" : 22.3308522,
                        "lng" : 87.3164525
                     },
                     "travel_mode" : "DRIVING"
                  },
                  {
                     "distance" : {
                        "text" : "0.7 km",
                        "value" : 747
                     },
                     "duration" : {
                        "text" : "2 mins",
                        "value" : 105
                     },
                     "end_location" : {
                        "lat" : 22.3399679,
                        "lng" : 87.32782879999999
                     },
                     "html_instructions" : "Turn \u003cb\u003eleft\u003c/b\u003e",
                     "maneuver" : "turn-left",
                     "polyline" : {
                        "points" : "w~hgCgo_tOqAReEh@i@H{ARqDd@i@HyBZkBXkBVqBXsBXoBZ"
                     },
                     "start_location" : {
                        "lat" : 22.3333968,
                        "lng" : 87.32931500000001
                     },
                     "travel_mode" : "DRIVING"
                  },
                  {
                     "distance" : {
                        "text" : "1.0 km",
                        "value" : 1021
                     },
                     "duration" : {
                        "text" : "3 mins",
                        "value" : 162
                     },
                     "end_location" : {
                        "lat" : 22.3426012,
                        "lng" : 87.33697680000002
                     },
                     "html_instructions" : "Turn \u003cb\u003eright\u003c/b\u003e onto \u003cb\u003eStation Rd\u003c/b\u003e\u003cdiv style=\"font-size:0.9em\"\u003ePass by Puratan Bazar Bus Stop (on the right in 800&nbsp;m)\u003c/div\u003e",
                     "maneuver" : "turn-right",
                     "polyline" : {
                        "points" : "ygjgC}e_tO]mDe@}D_@sC]sCk@kFYgCCY[gDI_@Ma@Y_@]e@i@iAEIYaAYgCIcBCQGSEMKMKIOAMA_@A"
                     },
                     "start_location" : {
                        "lat" : 22.3399679,
                        "lng" : 87.32782879999999
                     },
                     "travel_mode" : "DRIVING"
                  },
                  {
                     "distance" : {
                        "text" : "0.5 km",
                        "value" : 473
                     },
                     "duration" : {
                        "text" : "1 min",
                        "value" : 83
                     },
                     "end_location" : {
                        "lat" : 22.3452164,
                        "lng" : 87.3342902
                     },
                     "html_instructions" : "At Styles Tailor, \u003cb\u003eStation Rd\u003c/b\u003e turns slightly \u003cb\u003eleft\u003c/b\u003e and becomes \u003cb\u003eKharagpur City Rd\u003c/b\u003e",
                     "polyline" : {
                        "points" : "gxjgCc_atOk@Ji@JYDWL[^?PCTALAL?RIxDAPANCPELGJGFYJA?yB^WFMB]Jw@Ne@P"
                     },
                     "start_location" : {
                        "lat" : 22.3426012,
                        "lng" : 87.33697680000002
                     },
                     "travel_mode" : "DRIVING"
                  },
                  {
                     "distance" : {
                        "text" : "0.9 km",
                        "value" : 873
                     },
                     "duration" : {
                        "text" : "3 mins",
                        "value" : 167
                     },
                     "end_location" : {
                        "lat" : 22.3436497,
                        "lng" : 87.32598729999999
                     },
                     "html_instructions" : "Turn \u003cb\u003eleft\u003c/b\u003e onto \u003cb\u003eGolebazar Rd\u003c/b\u003e/\u003cb\u003eJama Masjid Rd\u003c/b\u003e\u003cdiv style=\"font-size:0.9em\"\u003ePass by Lucky Vegetables Shope (on the left in 750&nbsp;m)\u003c/div\u003e",
                     "maneuver" : "turn-left",
                     "polyline" : {
                        "points" : "shkgCin`tO@H?h@CN@Dh@dFBPh@xDBLl@fFp@hFn@fFVnBTtBRxABf@FnA"
                     },
                     "start_location" : {
                        "lat" : 22.3452164,
                        "lng" : 87.3342902
                     },
                     "travel_mode" : "DRIVING"
                  },
                  {
                     "distance" : {
                        "text" : "0.2 km",
                        "value" : 241
                     },
                     "duration" : {
                        "text" : "1 min",
                        "value" : 48
                     },
                     "end_location" : {
                        "lat" : 22.3419824,
                        "lng" : 87.32524060000001
                     },
                     "html_instructions" : "Turn \u003cb\u003eleft\u003c/b\u003e",
                     "maneuver" : "turn-left",
                     "polyline" : {
                        "points" : "y~jgCmz~sOTPDBXNF@RCpASr@KT?L@F?FBFBHDJNLVTxA"
                     },
                     "start_location" : {
                        "lat" : 22.3436497,
                        "lng" : 87.32598729999999
                     },
                     "travel_mode" : "DRIVING"
                  }
               ],
               "traffic_speed_entry" : [],
               "via_waypoint" : []
            }
         ],
         "overview_polyline" : {
            "points" : "_edgCguzsOc@PYPYXWb@e@`AGTCV?b@RvDNhAFPTVn@p@lA~@jB~AV^L\\D^@j@GtCKfA}@zF_@tBMf@MVc@f@gAfAcAr@gBfA]XOXy@`Cw@xAy@v@w@d@g@Ri@LkBLgFDk@CqBKaGs@wBYsCo@q@]iFiDkHqEmGgEy@m@k@m@KSUg@G]_@yGaAcKuAsLe@wGI}DA{AGyA@w@b@eLAg@Gi@Sc@Ye@k@]wDaBy@i@aCoB{@w@[i@a@mAYaD[sDBSe@kBaAuDY_Ba@sDAOc@BiC\\cFl@cEj@uDj@QwAoAeLmBeOyA}MoBgPcBcOqARoFr@qL~A}LdBoBZ]mDeAqIgBaP[gDI_@Ma@Y_@]e@i@iA_@kAYgCIcBKe@Q[KIOAm@CuAVYDWL[^?PEb@A`@KjEE`@MXa@RaDj@uAZe@P@HCx@j@jF~A`M`BpMl@dFV`CFnATP^RZAdC_@b@@NBPHXf@TxA"
         },
         "summary" : "Boundary Rd and IIT KGP Rail Over Bridge",
         "warnings" : [],
         "waypoint_order" : []
      }
   ],
   "status" : "OK"
}
